Taylor Swift song data • taylor
…
You can install the released version of {taylor} from CRAN with:

install.packages(taylor)

To install the development version from GitHub use:

# install.packages("remotes")
remotes::install_github("wjakethompson/taylor")

Example

There are three main data sets. The first is taylor_album_songs, which includes lyrics and audio features from the Spotify API for all songs on Taylor’s official studio albums. Notably this excludes singles released separately from an album (e.g., Only the Young, Christmas Tree Farm, etc.), and non-Taylor-owned albums that have a Taylor-owned alternative (e.g., Fearless is excluded in favor of Fearless (Taylor’s Version)). We stan artists owning their own songs.

taylor_album_songs
#> # A tibble: 163 × 29
#>    album_name  ep    album_release track_number track_name     artist  featuring
#>    <chr>       <lgl> <date>               <int> <chr>          <chr>   <chr>    
#>  1 Taylor Swi… FALSE 2006-10-24               1 Tim McGraw     Taylor… <NA>     
#>  2 Taylor Swi… FALSE 2006-10-24               2 Picture To Bu… Taylor… <NA>     
#>  3 Taylor Swi… FALSE 2006-10-24               3 Teardrops On … Taylor… <NA>     
#>  4 Taylor Swi… FALSE 2006-10-24               4 A Place In Th… Taylor… <NA>     
#>  5 Taylor Swi… FALSE 2006-10-24               5 Cold As You    Taylor… <NA>     
#>  6 Taylor Swi… FALSE 2006-10-24               6 The Outside    Taylor… <NA>     
#>  7 Taylor Swi… FALSE 2006-10-24               7 Tied Together… Taylor… <NA>     
#>  8 Taylor Swi… FALSE 2006-10-24               8 Stay Beautiful Taylor… <NA>     
#>  9 Taylor Swi… FALSE 2006-10-24               9 Should've Sai… Taylor… <NA>     
#> 10 Taylor Swi… FALSE 2006-10-24              10 Mary's Song (… Taylor… <NA>     
#> # … with 153 more rows, and 22 more variables: bonus_track <lgl>,
#> #   promotional_release <date>, single_release <date>, track_release <date>,
#> #   danceability <dbl>, energy <dbl>, key <int>, loudness <dbl>, mode <int>,
#> #   speechiness <dbl>, acousticness <dbl>, instrumentalness <dbl>,
#> #   liveness <dbl>, valence <dbl>, tempo <dbl>, time_signature <int>,
#> #   duration_ms <int>, explicit <lgl>, key_name <chr>, mode_name <chr>,
#> #   key_mode <chr>, lyrics <list>

You can access Taylor’s entire discography with taylor_all_songs. This includes all of the songs in taylor_album_songs plus EPs, individual singles, and the original versions of albums that have been re-released as Taylor’s Version.

taylor_all_songs
#> # A tibble: 214 × 29
#>    album_name  ep    album_release track_number track_name     artist  featuring
#>    <chr>       <lgl> <date>               <int> <chr>          <chr>   <chr>    
#>  1 Taylor Swi… FALSE 2006-10-24               1 Tim McGraw     Taylor… <NA>     
#>  2 Taylor Swi… FALSE 2006-10-24               2 Picture To Bu… Taylor… <NA>     
#>  3 Taylor Swi… FALSE 2006-10-24               3 Teardrops On … Taylor… <NA>     
#>  4 Taylor Swi… FALSE 2006-10-24               4 A Place In Th… Taylor… <NA>     
#>  5 Taylor Swi… FALSE 2006-10-24               5 Cold As You    Taylor… <NA>     
#>  6 Taylor Swi… FALSE 2006-10-24               6 The Outside    Taylor… <NA>     
#>  7 Taylor Swi… FALSE 2006-10-24               7 Tied Together… Taylor… <NA>     
#>  8 Taylor Swi… FALSE 2006-10-24               8 Stay Beautiful Taylor… <NA>     
#>  9 Taylor Swi… FALSE 2006-10-24               9 Should've Sai… Taylor… <NA>     
#> 10 Taylor Swi… FALSE 2006-10-24              10 Mary's Song (… Taylor… <NA>     
#> # … with 204 more rows, and 22 more variables: bonus_track <lgl>,
#> #   promotional_release <date>, single_release <date>, track_release <date>,
#> #   danceability <dbl>, energy <dbl>, key <int>, loudness <dbl>, mode <int>,
#> #   speechiness <dbl>, acousticness <dbl>, instrumentalness <dbl>,
#> #   liveness <dbl>, valence <dbl>, tempo <dbl>, time_signature <int>,
#> #   duration_ms <int>, explicit <lgl>, key_name <chr>, mode_name <chr>,
#> #   key_mode <chr>, lyrics <list>
…
