Welcome to taylor • taylor
…
This document introduces you to taylor’s functionality, and shows you
how to use them to learn about Taylor Swift’s music.

library(taylor)

I trace the evidence

The main data set is taylor_all_songs. This data set
contains audio features from Spotify and lyrics from Genius for each of
Taylor Swift’s songs.

taylor_all_songs
#> # A tibble: 356 × 29
#>    album_name   ep    album_release track_number track_name     artist featuring
#>    <chr>        <lgl> <date>               <int> <chr>          <chr>  <chr>    
#>  1 Taylor Swift FALSE 2006-10-24               1 Tim McGraw     Taylo… NA       
#>  2 Taylor Swift FALSE 2006-10-24               2 Picture To Bu… Taylo… NA       
#>  3 Taylor Swift FALSE 2006-10-24               3 Teardrops On … Taylo… NA       
#>  4 Taylor Swift FALSE 2006-10-24               4 A Place In Th… Taylo… NA       
#>  5 Taylor Swift FALSE 2006-10-24               5 Cold As You    Taylo… NA       
#>  6 Taylor Swift FALSE 2006-10-24               6 The Outside    Taylo… NA       
#>  7 Taylor Swift FALSE 2006-10-24               7 Tied Together… Taylo… NA       
#>  8 Taylor Swift FALSE 2006-10-24               8 Stay Beautiful Taylo… NA       
#>  9 Taylor Swift FALSE 2006-10-24               9 Should've Sai… Taylo… NA       
#> 10 Taylor Swift FALSE 2006-10-24              10 Mary's Song (… Taylo… NA       
#> # ℹ 346 more rows
#> # ℹ 22 more variables: bonus_track <lgl>, promotional_release <date>,
#> #   single_release <date>, track_release <date>, danceability <dbl>,
#> #   energy <dbl>, key <int>, loudness <dbl>, mode <int>, speechiness <dbl>,
#> #   acousticness <dbl>, instrumentalness <dbl>, liveness <dbl>, valence <dbl>,
#> #   tempo <dbl>, time_signature <int>, duration_ms <int>, explicit <lgl>,
#> #   key_name <chr>, mode_name <chr>, key_mode <chr>, lyrics <list>
…
Finally, there is a data set dedicated to The Eras Tour, specifically
the surprise songs that Taylor plays at each show. The data set,
eras_tour_surprise, contains the date and location of each
show, the color dress Taylor wore during the acoustic set, and the song
that was performed on each instrument (piano and guitar). The data set
also includes information on any additional songs that were performed as
mashups and guests that Taylor brought out for a performance.

eras_tour_surprise
#> # A tibble: 166 × 9
#>    leg                date       city  night dress instrument song  mashup guest
#>    <chr>              <date>     <chr> <int> <chr> <chr>      <chr> <chr>  <chr>
#>  1 North America (Le… 2023-03-17 Glen…     1 red   guitar     mirr… NA     NA   
#>  2 North America (Le… 2023-03-17 Glen…     1 red   piano      Tim … NA     NA   
#>  3 North America (Le… 2023-03-18 Glen…     2 green guitar     this… NA     NA   
#>  4 North America (Le… 2023-03-18 Glen…     2 green piano      Stat… NA     NA   
#>  5 North America (Le… 2023-03-24 Las …     1 red   guitar     Our … NA     NA   
#>  6 North America (Le… 2023-03-24 Las …     1 red   piano      Snow… NA     NA   
#>  7 North America (Le… 2023-03-25 Las …     2 green guitar     cowb… NA     Marc…
#>  8 North America (Le… 2023-03-25 Las …     2 green piano      Whit… NA     NA   
#>  9 North America (Le… 2023-03-31 Arli…     1 green guitar     Sad … NA     NA   
#> 10 North America (Le… 2023-03-31 Arli…     1 green piano      Ours… NA     NA   
#> # ℹ 156 more rows
…
